cross_validation
…
cv_df = 
  crossv_mc(nonlin_df, 100)

how many times do you want to do this cross validation? it generates 100 training testing pairs and saves into df

one note about resample

in my cv_df, pulll out training, convert 1st element, gives table with 79 rows that have ids and x and y var in this training split

datasets change when you change the training split

cv_df %>% pull(train) %>% .[[1]] %>% as_tibble

## # A tibble: 79 x 3
##       id     x      y
##    <int> <dbl>  <dbl>
##  1     1 0.238  0.883
##  2     2 0.395  1.67 
##  3     3 0.724 -1.01 
##  4     4 0.567  0.421
##  5     5 0.107  0.105
##  6     6 0.634  0.149
##  7     7 0.251  1.01 
##  8     9 0.923 -2.66 
##  9    10 0.874 -2.16 
## 10    11 0.236  1.10 
## # ... with 69 more rows

cv_df %>% pull(test) %>% .[[1]] %>% as_tibble

## # A tibble: 21 x 3
##       id      x        y
##    <int>  <dbl>    <dbl>
##  1     8 0.554   0.0889 
##  2    24 0.814  -1.54   
##  3    30 0.404   1.37   
##  4    37 0.425   0.888  
##  5    39 0.678  -0.386  
##  6    40 0.0226  0.00355
##  7    42 0.496   0.822  
##  8    44 0.0520  0.535  
##  9    48 0.714  -1.85   
## 10    56 0.907  -2.95   
## # ... with 11 more rows
…
